<?xml version="1.0" encoding="utf-8"?>
<svg version="1.1"
	 id="Layer_1" xmlns:v="http://schemas.microsoft.com/visio/2003/SVGExtensions/" xmlns:ev="http://www.w3.org/2001/xml-events"
	 xmlns="http://www.w3.org/2000/svg" xmlns:xlink="http://www.w3.org/1999/xlink" x="0px" y="0px" width="293.668px"
	 height="54.992px" viewBox="18.24 18.24 293.668 54.992" enable-background="new 18.24 18.24 293.668 54.992" xml:space="preserve"
	>
<g>
	<g id="shape1-1" transform="translate(18.24,-40.9172)">
		<rect x="0" y="75.598" fill="#646464" width="39.685" height="15.874"/>
	</g>

	<g id="shape2-3" transform="translate(73.2321,-40.9172)">
		<rect x="0" y="69.362" fill="#646464" width="34.016" height="22.11"/>
	</g>

	<g id="shape3-5" transform="translate(112.917,-40.9172)">
		<rect y="59.157" fill="#646464" width="17.008" height="32.314"/>
	</g>

	<g id="shape4-7" transform="translate(141.264,-40.9172)">
		<rect x="0" y="59.157" fill="#646464" width="26.078" height="32.314"/>
	</g>

	<g id="shape5-9" transform="translate(296.035,-48.2872)">
		<rect x="0.001" y="66.527" fill="#646464" width="15.873" height="24.945"/>
	</g>

	<g id="shape6-11" transform="translate(19.6573,-18.24)">
		<rect x="0" y="71.63" fill="#646464" width="291.968" height="19.843"/>
	</g>
</g>
</svg>
